-32 -16 -8 -8 -24 -24 -8 -40 -16 -24 -32 -40 -32 -32 -32 -40 -32 -40 -16 -40 -32 -16 -32 -16 -8 152
-32 -8 -24 -24 -16 -40 -8 -32 -40 -16 -40 -40 -24 -8 -40 -8 -8 -16 -16 -32 -40 -16 -16 -32 -40 176
-32 -24 -8 -16 -8 -40 -24 -24 -24 -8 -32 -8 -40 -32 -8 -32 -40 -32 -40 -40 -24 -8 -16 -8 -32 192
-24 -8 -24 -32 -40 -24 -8 -32 -32 -8 -16 -16 -40 -8 -24 -32 -16 -16 -32 -24 -16 -16 -32 -32 -8 232
-32 -32 -40 -32 -8 -8 -40 -16 -32 -16 -16 -24 -8 -40 -8 -32 -8 -16 -16 -24 -40 -40 -8 -24 -16 216
-32 -56 -32 -64 -40 728
-24 -56 -24 -32 -16 800
-56 -40 -56 -40 -48 712
-16 -48 -40 -24 -56 768
-24 -32 -8 -64 -8 816
