-32 952 
-64 -16 -8 -32 -40 -56 -24 -16 672 
-120 -96 -80 -40 -16 -24 -16 -24 512 
-48 -16 16 -64 -8 -40 752 
-24 -40 -16 -48 -8 -56 -64 680 
-8 -16 8 -16 -24 72 -16 776 
80 -8 -16 -112 -32 -16 -32 -24 608 
-168 -32 -8 -40 -56 8 -16 -24 576 
32 -168 -32 -16 -16 -24 656 
-8 32 -8 88 -8 56 -40 696 
-8 48 -16 24 -8 -40 -120 -112 552 

